{
    "prepare_queue": {
        "installed": [],
        "uninstalled": []
    },
    "config_munge": {
        "files": {}
    },
    "installed_plugins": {
        "cordova-plugin-camera": {
            "PACKAGE_NAME": "br.com.brasit.tentrego"
        },
        "cordova-plugin-battery-status": {
            "PACKAGE_NAME": "br.com.brasit.tentrego"
        },
        "com.phonegap.plugins.PushPlugin": {
            "PACKAGE_NAME": "br.com.brasit.tentrego"
        },
        "phonegap-plugin-push": {
            "SENDER_ID": "XXXXXXX",
            "PACKAGE_NAME": "br.com.brasit.tentrego"
        },
        "cordova-plugin-geolocation": {
            "PACKAGE_NAME": "br.com.brasit.tentrego"
        },
        "cordova.plugins.diagnostic": {
            "PACKAGE_NAME": "br.com.brasit.tentrego"
        },
        "cordova-plugin-dialogs": {
            "PACKAGE_NAME": "br.com.brasit.tentrego"
        },
        "cordova-custom-config": {
            "PACKAGE_NAME": "br.com.brasit.tentrego"
        },
        "cordova-plugin-app-update": {
            "PACKAGE_NAME": "br.com.brasit.tentrego"
        },
        "cordova-plugin-vibration": {
            "PACKAGE_NAME": "br.com.brasit.tentrego"
        },
        "cordova-plugin-networking-bluetooth": {
            "PACKAGE_NAME": "br.com.brasit.tentrego"
        },
        "cordova-plugin-file-transfer": {
            "PACKAGE_NAME": "br.com.brasit.tentrego"
        },
        "cordova-plugin-file": {
            "PACKAGE_NAME": "br.com.brasit.tentrego"
        },
        "cordova-plugin-whitelist": {
            "PACKAGE_NAME": "br.com.brasit.tentrego"
        }
    },
    "dependent_plugins": {
        "cordova-plugin-compat": {
            "PACKAGE_NAME": "br.com.brasit.tentrego"
        },
        "cordova-plugin-appversion": {
            "PACKAGE_NAME": "br.com.brasit.tentrego"
        }
    }
}